9 9. tibbles and tribbles – Data Management With R (latest version)
…
# Tibbles show only the first 10 rows by default
# and only columns that fit on screen
health_data

# A tibble: 25 × 12
   patient_id admit_date   age heart_rate blood_pressure_sys
   <chr>      <date>     <int>      <dbl>              <dbl>
 1 P0001      2024-01-05    69         61                106
 2 P0002      2024-01-01    72         69                125
 3 P0003      2024-01-10    89         62                132
 4 P0004      2024-01-20    75         53                120
 5 P0005      2024-01-25    22         79                134
 6 P0006      2024-01-12    73         80                132
 7 P0007      2024-01-31    39         79                114
 8 P0008      2024-01-27    22         75                123
 9 P0009      2024-01-11    54         81                124
10 P0010      2024-01-05    52         90                130
# ℹ 15 more rows
# ℹ 7 more variables: blood_pressure_dia <dbl>,
#   temperature <dbl>, oxygen_saturation <dbl>,
#   cholesterol <dbl>, glucose <dbl>, weight_kg <dbl>,
#   height_cm <dbl>
…
9.4 Printing More Rows/Columns of a Tibble

# By default, print() shows 10 rows. Use n= to show more rows
print(health_data, n = 20)  # Shows 20 rows

# A tibble: 25 × 12
   patient_id admit_date   age heart_rate blood_pressure_sys
   <chr>      <date>     <int>      <dbl>              <dbl>
 1 P0001      2024-01-05    69         61                106
 2 P0002      2024-01-01    72         69                125
 3 P0003      2024-01-10    89         62                132
 4 P0004      2024-01-20    75         53                120
 5 P0005      2024-01-25    22         79                134
 6 P0006      2024-01-12    73         80                132
 7 P0007      2024-01-31    39         79                114
 8 P0008      2024-01-27    22         75                123
 9 P0009      2024-01-11    54         81                124
10 P0010      2024-01-05    52         90                130
11 P0011      2024-01-04    64         82                124
12 P0012      2024-01-18    93         76                 86
13 P0013      2024-01-01    58         77                120
14 P0014      2024-01-12    78         76                126
15 P0015      2024-01-17    23         69                128
16 P0016      2024-01-09    43         69                103
17 P0017      2024-01-17    86         70                114
18 P0018      2024-01-17    62         52                138
19 P0019      2024-01-09    36         79                127
20 P0020      2024-01-14    34         74                149
# ℹ 5 more rows
# ℹ 7 more variables: blood_pressure_dia <dbl>,
#   temperature <dbl>, oxygen_saturation <dbl>,
#   cholesterol <dbl>, glucose <dbl>, weight_kg <dbl>,
#   height_cm <dbl>
…
9.4.1 Controlling Column Width

# width argument to print specifies the number of characters that should
# be printed in the widest row. In effect, this limits the number of columns
# being output to those columns that fit in the specified width.
print(health_data, width = 75)

# A tibble: 25 × 12
   patient_id admit_date   age heart_rate blood_pressure_sys
   <chr>      <date>     <int>      <dbl>              <dbl>
 1 P0001      2024-01-05    69         61                106
 2 P0002      2024-01-01    72         69                125
 3 P0003      2024-01-10    89         62                132
 4 P0004      2024-01-20    75         53                120
 5 P0005      2024-01-25    22         79                134
 6 P0006      2024-01-12    73         80                132
 7 P0007      2024-01-31    39         79                114
 8 P0008      2024-01-27    22         75                123
 9 P0009      2024-01-11    54         81                124
10 P0010      2024-01-05    52         90                130
# ℹ 15 more rows
# ℹ 7 more variables: blood_pressure_dia <dbl>, temperature <dbl>,
#   oxygen_saturation <dbl>, cholesterol <dbl>, glucose <dbl>,
#   weight_kg <dbl>, height_cm <dbl>

# Show all columns by setting width to Inf
print(health_data, width = Inf)

# A tibble: 25 × 12
   patient_id admit_date   age heart_rate blood_pressure_sys blood_pressure_dia temperature oxygen_saturation cholesterol glucose weight_kg height_cm
   <chr>      <date>     <int>      <dbl>              <dbl>              <dbl>       <dbl>             <dbl>       <dbl>   <dbl>     <dbl>     <dbl>
 1 P0001      2024-01-05    69         61                106                 70        99.3                98         178     109      76.9       168
 2 P0002      2024-01-01    72         69                125                 75        98.1               100         180      79      54.9       182
 3 P0003      2024-01-10    89         62                132                 75        99                  98         202     113      53.9       189
 4 P0004      2024-01-20    75         53                120                 71        98                  97         125      79     104.        190
 5 P0005      2024-01-25    22         79                134                 76        98.6                99         142     122      73.7       163
 6 P0006      2024-01-12    73         80                132                 92        99.5               100         149      80      54.7       157
 7 P0007      2024-01-31    39         79                114                 71        98.8               101         176     100      69.9       156
 8 P0008      2024-01-27    22         75                123                 85        99.2                99         178      77      87.1       158
 9 P0009      2024-01-11    54         81                124                 66        99.6               101         222      83      78         162
10 P0010      2024-01-05    52         90                130                 80        99                  98         233     107      65.4       178
# ℹ 15 more rows
…
