25 25. dplyr - getting and viewing the data – Data Management With R (latest version)
…
sales = read_csv("salespeople-v002.csv", na=c("","NULL"), show_col_types=FALSE)

25.2 Display the data

Since the data is in a tibble, by default, only the first 10 rows are displayed. In addition, only the columns that fit on the screen will be displayed. If the rows are too wide for the screen, then some columns may not be displayed and/or the contents of some columns may be shortened.

# Display the first few rows and columns of the sales data
sales

# A tibble: 24 × 7
   first  last    title region baseInThousands salesInThousands yearsWithCompany
   <chr>  <chr>   <chr> <chr>            <dbl>            <dbl>            <dbl>
 1 Joe    Smith   Mana… usa                 40              100               10
 2 Sam    Lee     Sale… usa                 40              200                6
 3 Sue    Sallin… Sale… asia                30              150               10
 4 Barb   Brown   Sr. … asia                35               79                4
 5 Jack   Martin  Mana… europe              20               40                3
 6 Kate   Carey   Sr. … europe              20               69                2
 7 Emy    Parsons Sale… africa              25               87                3
 8 Monica Oja     Sale… africa              35               98               10
 9 Jim    Kuruzo… Sr. … usa                 35              140                3
10 Zeke   Cohen   Mana… usa                 30              250               10
# ℹ 14 more rows

25.3 Display more rows/columns of the tibble

25.3.1 print( SOME_TIBBLE, n=NUMBER_OF_ROWS)

# Use the print function to modify the output. Use the following arguments:
#    n - number of rows to display (Inf, i.e. infinity, for all rows)
#    width - maximum width of a row to display (might wrap if it's too long for your screen)
print(sales, n=3)

# A tibble: 24 × 7
  first last      title region baseInThousands salesInThousands yearsWithCompany
  <chr> <chr>     <chr> <chr>            <dbl>            <dbl>            <dbl>
1 Joe   Smith     Mana… usa                 40              100               10
2 Sam   Lee       Sale… usa                 40              200                6
3 Sue   Sallinger Sale… asia                30              150               10
# ℹ 21 more rows
…
25.3.3 print doesn’t change the tibble

The print function doesn’t change the tibble. print just controls what is displayed to the screen. Therefore if you save the results to a variable, the variable will still contain the entire tibble.

# display first 3 rows
print(sales, n=3)

# A tibble: 24 × 7
  first last      title region baseInThousands salesInThousands yearsWithCompany
  <chr> <chr>     <chr> <chr>            <dbl>            <dbl>            <dbl>
1 Joe   Smith     Mana… usa                 40              100               10
2 Sam   Lee       Sale… usa                 40              200                6
3 Sue   Sallinger Sale… asia                30              150               10
# ℹ 21 more rows

# capture in a variable
x = print(sales, n=3)

# A tibble: 24 × 7
  first last      title region baseInThousands salesInThousands yearsWithCompany
  <chr> <chr>     <chr> <chr>            <dbl>            <dbl>            <dbl>
1 Joe   Smith     Mana… usa                 40              100               10
2 Sam   Lee       Sale… usa                 40              200                6
3 Sue   Sallinger Sale… asia                30              150               10
# ℹ 21 more rows

# x still contains ALL the rows
x

# A tibble: 24 × 7
   first  last    title region baseInThousands salesInThousands yearsWithCompany
   <chr>  <chr>   <chr> <chr>            <dbl>            <dbl>            <dbl>
 1 Joe    Smith   Mana… usa                 40              100               10
 2 Sam    Lee     Sale… usa                 40              200                6
 3 Sue    Sallin… Sale… asia                30              150               10
 4 Barb   Brown   Sr. … asia                35               79                4
 5 Jack   Martin  Mana… europe              20               40                3
 6 Kate   Carey   Sr. … europe              20               69                2
 7 Emy    Parsons Sale… africa              25               87                3
 8 Monica Oja     Sale… africa              35               98               10
 9 Jim    Kuruzo… Sr. … usa                 35              140                3
10 Zeke   Cohen   Mana… usa                 30              250               10
# ℹ 14 more rows
…
#######################################################################
# However, features of some functions that are designed to
# work with tibbles might not work with data.frames.
#######################################################################

# This works fine - display the first 3 rows of the tibble.
print(tblSales, n=3) 

# A tibble: 24 × 7
  first last      title region baseInThousands salesInThousands yearsWithCompany
  <chr> <chr>     <chr> <chr>            <dbl>            <dbl>            <dbl>
1 Joe   Smith     Mana… usa                 40              100               10
2 Sam   Lee       Sale… usa                 40              200                6
3 Sue   Sallinger Sale… asia                30              150               10
# ℹ 21 more rows
…
# A tibble: 3 × 7
  first last      title region baseInThousands salesInThousands yearsWithCompany
  <chr> <chr>     <chr> <chr>            <dbl>            <dbl>            <dbl>
1 Joe   Smith     Mana… usa                 40              100               10
2 Sam   Lee       Sale… usa                 40              200                6
3 Sue   Sallinger Sale… asia                30              150               10

# print appears to do the same thing
# but print only affects what is displayed to the screen, not 
# what is "returned" and can be saved in a variable.
y = sales |> print(n=3)

# A tibble: 24 × 7
  first last      title region baseInThousands salesInThousands yearsWithCompany
  <chr> <chr>     <chr> <chr>            <dbl>            <dbl>            <dbl>
1 Joe   Smith     Mana… usa                 40              100               10
2 Sam   Lee       Sale… usa                 40              200                6
3 Sue   Sallinger Sale… asia                30              150               10
# ℹ 21 more rows

# y still has all of the rows
y

# A tibble: 24 × 7
   first  last    title region baseInThousands salesInThousands yearsWithCompany
   <chr>  <chr>   <chr> <chr>            <dbl>            <dbl>            <dbl>
 1 Joe    Smith   Mana… usa                 40              100               10
 2 Sam    Lee     Sale… usa                 40              200                6
 3 Sue    Sallin… Sale… asia                30              150               10
 4 Barb   Brown   Sr. … asia                35               79                4
 5 Jack   Martin  Mana… europe              20               40                3
 6 Kate   Carey   Sr. … europe              20               69                2
 7 Emy    Parsons Sale… africa              25               87                3
 8 Monica Oja     Sale… africa              35               98               10
 9 Jim    Kuruzo… Sr. … usa                 35              140                3
10 Zeke   Cohen   Mana… usa                 30              250               10
# ℹ 14 more rows
…
