20 Intro to dplyr – Data Management With R
…
sales = read_csv("salespeople-v002.csv", na=c("","NULL"), show_col_types=FALSE)

20.2 Display the data

Since the data is in a tibble, by default, only the first 10 rows are displayed. In addition, only the columns that fit on the screen will be displayed. If the rows are too wide for the screen, then some columns may not be displayed and/or the contents of some columns may be shortened.

# Display the first few rows and columns of the sales data
sales

# A tibble: 24 × 7
   first  last    title region baseInThousands salesInThousands yearsWithCompany
   <chr>  <chr>   <chr> <chr>            <dbl>            <dbl>            <dbl>
 1 Joe    Smith   Mana… usa                 40              100               10
 2 Sam    Lee     Sale… usa                 40              200                6
 3 Sue    Sallin… Sale… asia                30              150               10
 4 Barb   Brown   Sr. … asia                35               79                4
 5 Jack   Martin  Mana… europe              20               40                3
 6 Kate   Carey   Sr. … europe              20               69                2
 7 Emy    Parsons Sale… africa              25               87                3
 8 Monica Oja     Sale… africa              35               98               10
 9 Jim    Kuruzo… Sr. … usa                 35              140                3
10 Zeke   Cohen   Mana… usa                 30              250               10
# ℹ 14 more rows

20.3 Display more rows/columns of the tibble

20.3.1 print( SOME_TIBBLE, n=NUMBER_OF_ROWS)

# Use the print function to modify the output. Use the following arguments:
#    n - number of rows to display (Inf, i.e. infinity, for all rows)
#    width - maximum width of a row to display (might wrap if it's too long for your screen)
print(sales, n=3)

# A tibble: 24 × 7
  first last      title region baseInThousands salesInThousands yearsWithCompany
  <chr> <chr>     <chr> <chr>            <dbl>            <dbl>            <dbl>
1 Joe   Smith     Mana… usa                 40              100               10
2 Sam   Lee       Sale… usa                 40              200                6
3 Sue   Sallinger Sale… asia                30              150               10
# ℹ 21 more rows

20.3.2 print( SOME_TIBBLE, width=WIDTH_OF_DATA)

# Display all rows and all columns
print(sales, n=Inf, width=Inf)

20.3.3 print doesn’t change the tibble

The print function doesn’t change the tibble. print just controls what is displayed to the screen. Therefore if you save the results to a variable, the variable will still contain the entire tibble.

# display first 3 rows
print(sales, n=3)

# A tibble: 24 × 7
  first last      title region baseInThousands salesInThousands yearsWithCompany
  <chr> <chr>     <chr> <chr>            <dbl>            <dbl>            <dbl>
1 Joe   Smith     Mana… usa                 40              100               10
2 Sam   Lee       Sale… usa                 40              200                6
3 Sue   Sallinger Sale… asia                30              150               10
# ℹ 21 more rows

# capture in a variable
x = print(sales, n=3)

# A tibble: 24 × 7
  first last      title region baseInThousands salesInThousands yearsWithCompany
  <chr> <chr>     <chr> <chr>            <dbl>            <dbl>            <dbl>
1 Joe   Smith     Mana… usa                 40              100               10
2 Sam   Lee       Sale… usa                 40              200                6
3 Sue   Sallinger Sale… asia                30              150               10
# ℹ 21 more rows

# x still contains ALL the rows
x

# A tibble: 24 × 7
   first  last    title region baseInThousands salesInThousands yearsWithCompany
   <chr>  <chr>   <chr> <chr>            <dbl>            <dbl>            <dbl>
 1 Joe    Smith   Mana… usa                 40              100               10
 2 Sam    Lee     Sale… usa                 40              200                6
 3 Sue    Sallin… Sale… asia                30              150               10
 4 Barb   Brown   Sr. … asia                35               79                4
 5 Jack   Martin  Mana… europe              20               40                3
 6 Kate   Carey   Sr. … europe              20               69                2
 7 Emy    Parsons Sale… africa              25               87                3
 8 Monica Oja     Sale… africa              35               98               10
 9 Jim    Kuruzo… Sr. … usa                 35              140                3
10 Zeke   Cohen   Mana… usa                 30              250               10
# ℹ 14 more rows
…
# A tibble: 3 × 7
  first last      title region baseInThousands salesInThousands yearsWithCompany
  <chr> <chr>     <chr> <chr>            <dbl>            <dbl>            <dbl>
1 Joe   Smith     Mana… usa                 40              100               10
2 Sam   Lee       Sale… usa                 40              200                6
3 Sue   Sallinger Sale… asia                30              150               10

# print appears to do the same thing
# but print only affects what is displayed to the screen, not 
# what is "returned" and can be saved in a variable.
y = sales |> print(n=3)

# A tibble: 24 × 7
  first last      title region baseInThousands salesInThousands yearsWithCompany
  <chr> <chr>     <chr> <chr>            <dbl>            <dbl>            <dbl>
1 Joe   Smith     Mana… usa                 40              100               10
2 Sam   Lee       Sale… usa                 40              200                6
3 Sue   Sallinger Sale… asia                30              150               10
# ℹ 21 more rows

# y still has all of the rows
y

# A tibble: 24 × 7
   first  last    title region baseInThousands salesInThousands yearsWithCompany
   <chr>  <chr>   <chr> <chr>            <dbl>            <dbl>            <dbl>
 1 Joe    Smith   Mana… usa                 40              100               10
 2 Sam    Lee     Sale… usa                 40              200                6
 3 Sue    Sallin… Sale… asia                30              150               10
 4 Barb   Brown   Sr. … asia                35               79                4
 5 Jack   Martin  Mana… europe              20               40                3
 6 Kate   Carey   Sr. … europe              20               69                2
 7 Emy    Parsons Sale… africa              25               87                3
 8 Monica Oja     Sale… africa              35               98               10
 9 Jim    Kuruzo… Sr. … usa                 35              140                3
10 Zeke   Cohen   Mana… usa                 30              250               10
# ℹ 14 more rows
…
#######################################################################
# However, features of some functions that are designed to
# work with tibbles might not work with data.frames.
#######################################################################

# This works fine - display the first 3 rows of the tibble.
print(tblSales, n=3) 

# A tibble: 24 × 7
  first last      title region baseInThousands salesInThousands yearsWithCompany
  <chr> <chr>     <chr> <chr>            <dbl>            <dbl>            <dbl>
1 Joe   Smith     Mana… usa                 40              100               10
2 Sam   Lee       Sale… usa                 40              200                6
3 Sue   Sallinger Sale… asia                30              150               10
# ℹ 21 more rows
# ERROR - n argument is not designed to work with dataframes that aren't tibbles
print(dfSales, n=3) 

Error in print.default(m, ..., quote = quote, right = right, max = max): invalid 'na.print' specification

20.5 select

Use the select function to get just the specified columns.

The first argument to the select function is named .data (notice the period before .data). It is used to specify which tibble or dataframe you are working with. The other arguments are used to specify which columns you’d like to see from the dataframe/tibble. Note that there are NO quotes around the column names (this differs from the base-r way of specifying column names in a dataframe).

# Show just the specified columns from the sales tibble
select(.data=sales, first, last, salesInThousands)

# A tibble: 24 × 3
   first  last       salesInThousands
   <chr>  <chr>                 <dbl>
 1 Joe    Smith                   100
 2 Sam    Lee                     200
 3 Sue    Sallinger               150
 4 Barb   Brown                    79
 5 Jack   Martin                   40
 6 Kate   Carey                    69
 7 Emy    Parsons                  87
 8 Monica Oja                      98
 9 Jim    Kuruzovich              140
10 Zeke   Cohen                   250
# ℹ 14 more rows

The columns appear in whatever order you specified in the select function. If you want to bring a few columns to the front followed by the rest of the columns, you can use the everything() function.

# Show the specified columns first, followed by the other columns.
select(.data=sales, first, last, everything())

# A tibble: 24 × 7
   first  last    title region baseInThousands salesInThousands yearsWithCompany
   <chr>  <chr>   <chr> <chr>            <dbl>            <dbl>            <dbl>
 1 Joe    Smith   Mana… usa                 40              100               10
 2 Sam    Lee     Sale… usa                 40              200                6
 3 Sue    Sallin… Sale… asia                30              150               10
 4 Barb   Brown   Sr. … asia                35               79                4
 5 Jack   Martin  Mana… europe              20               40                3
 6 Kate   Carey   Sr. … europe              20               69                2
 7 Emy    Parsons Sale… africa              25               87                3
 8 Monica Oja     Sale… africa              35               98               10
 9 Jim    Kuruzo… Sr. … usa                 35              140                3
10 Zeke   Cohen   Mana… usa                 30              250               10
# ℹ 14 more rows
…
group_by - identify which rows will be aggregated by a subsequent call to the summarize function (see below) Note that group_by isn’t too useful unless it is followed by a subsequent call to summarize.

summarize - aggregrate several rows of data into a single row of data by using “aggregate functions” such as max(), min(), etc

There are many other functions included with dplyr. For a full list of what’s included with dplyr run help(package="dplyr"). You can also download a “cheat sheet” that lists all the funcitons at https://www.rstudio.org/links/data_transformation_cheat_sheet (this cheat sheet and others are available from the “Help > Cheat Sheets” menu in RStudio)

20.9 arrange

The arrange function reorders the rows based on specified sorting rules.

# Arrange all of the rows based on salesInThousands. 
sales |> 
  arrange(salesInThousands)

# A tibble: 24 × 7
   first  last    title region baseInThousands salesInThousands yearsWithCompany
   <chr>  <chr>   <chr> <chr>            <dbl>            <dbl>            <dbl>
 1 Jack   Martin  Mana… europe              20               40                3
 2 Kate   Carey   Sr. … europe              20               69                2
 3 Barb   Brown   Sr. … asia                35               79                4
 4 Emy    Parsons Sale… africa              25               87                3
 5 Monica Oja     Sale… africa              35               98               10
 6 Joe    Smith   Mana… usa                 40              100               10
 7 Jack   Aames   Sale… usa                 43              105                4
 8 Larry  Green   Sr. … europe              20              113                4
 9 Zeke   Smith   Sale… asia                20              120                3
10 Jim    Kuruzo… Sr. … usa                 35              140                3
# ℹ 14 more rows
…
20.10 mutate - add new columns

Use the mutate function to add new columns. These new columns can be based on existing data. See the examples below.

# All salespeople get a commission equal to 10% of their sales.
# Create a new column with the name commission that shows the value of their commission.

# The following code creates the new column as the last column in the tibble.
sales |>
  mutate(commission=0.10*salesInThousands, takeHome=baseInThousands + 0.10*salesInThousands ) |>
  print(width=Inf)

# A tibble: 24 × 9
   first  last       title           region baseInThousands salesInThousands
   <chr>  <chr>      <chr>           <chr>            <dbl>            <dbl>
 1 Joe    Smith      Manager         usa                 40              100
 2 Sam    Lee        Salesperson     usa                 40              200
 3 Sue    Sallinger  Salesperson     asia                30              150
 4 Barb   Brown      Sr. Salesperson asia                35               79
 5 Jack   Martin     Manager         europe              20               40
 6 Kate   Carey      Sr. Salesperson europe              20               69
 7 Emy    Parsons    Salesperson     africa              25               87
 8 Monica Oja        Salesperson     africa              35               98
 9 Jim    Kuruzovich Sr. Salesperson usa                 35              140
10 Zeke   Cohen      Manager         usa                 30              250
   yearsWithCompany commission takeHome
              <dbl>      <dbl>    <dbl>
 1               10       10       50  
 2                6       20       60  
 3               10       15       45  
 4                4        7.9     42.9
 5                3        4       24  
 6                2        6.9     26.9
 7                3        8.7     33.7
 8               10        9.8     44.8
 9                3       14       49  
10               10       25       55  
# ℹ 14 more rows

20.10.1 .before and .after

Use the .before and .after argument to mutate to specify where the new columns should appear in the tibble. See the examples below.

# Place the newly created column at the beginning of the tibble,
# i.e. .before the 1st column.

sales |>
  mutate(commission=0.10*salesInThousands, .before=1)

# A tibble: 24 × 8
   commission first  last       title    region baseInThousands salesInThousands
        <dbl> <chr>  <chr>      <chr>    <chr>            <dbl>            <dbl>
 1       10   Joe    Smith      Manager  usa                 40              100
 2       20   Sam    Lee        Salespe… usa                 40              200
 3       15   Sue    Sallinger  Salespe… asia                30              150
 4        7.9 Barb   Brown      Sr. Sal… asia                35               79
 5        4   Jack   Martin     Manager  europe              20               40
 6        6.9 Kate   Carey      Sr. Sal… europe              20               69
 7        8.7 Emy    Parsons    Salespe… africa              25               87
 8        9.8 Monica Oja        Salespe… africa              35               98
 9       14   Jim    Kuruzovich Sr. Sal… usa                 35              140
10       25   Zeke   Cohen      Manager  usa                 30              250
# ℹ 14 more rows
# ℹ 1 more variable: yearsWithCompany <dbl>

# Place the newly created column as the 3rd column
# i.e. .after the 2nd column.
# (.before=4 would also work)

sales |>
  mutate(commission=0.10*salesInThousands, .after=2)

# A tibble: 24 × 8
   first  last       commission title    region baseInThousands salesInThousands
   <chr>  <chr>           <dbl> <chr>    <chr>            <dbl>            <dbl>
 1 Joe    Smith            10   Manager  usa                 40              100
 2 Sam    Lee              20   Salespe… usa                 40              200
 3 Sue    Sallinger        15   Salespe… asia                30              150
 4 Barb   Brown             7.9 Sr. Sal… asia                35               79
 5 Jack   Martin            4   Manager  europe              20               40
 6 Kate   Carey             6.9 Sr. Sal… europe              20               69
 7 Emy    Parsons           8.7 Salespe… africa              25               87
 8 Monica Oja               9.8 Salespe… africa              35               98
 9 Jim    Kuruzovich       14   Sr. Sal… usa                 35              140
10 Zeke   Cohen            25   Manager  usa                 30              250
# ℹ 14 more rows
# ℹ 1 more variable: yearsWithCompany <dbl>

# .before and .after can also refer to specific columns
# For example the following also places the commission after the last name column
sales |>
  mutate(commission=0.10*salesInThousands, .after=last)

# A tibble: 24 × 8
   first  last       commission title    region baseInThousands salesInThousands
   <chr>  <chr>           <dbl> <chr>    <chr>            <dbl>            <dbl>
 1 Joe    Smith            10   Manager  usa                 40              100
 2 Sam    Lee              20   Salespe… usa                 40              200
 3 Sue    Sallinger        15   Salespe… asia                30              150
 4 Barb   Brown             7.9 Sr. Sal… asia                35               79
 5 Jack   Martin            4   Manager  europe              20               40
 6 Kate   Carey             6.9 Sr. Sal… europe              20               69
 7 Emy    Parsons           8.7 Salespe… africa              25               87
 8 Monica Oja               9.8 Salespe… africa              35               98
 9 Jim    Kuruzovich       14   Sr. Sal… usa                 35              140
10 Zeke   Cohen            25   Manager  usa                 30              250
# ℹ 14 more rows
# ℹ 1 more variable: yearsWithCompany <dbl>
…
